Web Scraping with rvest and RSelenium in R
…
Data manipulation

Hurray, we did it. Now, as a data analyst we can do better by manipulating the data to get a somewhat clean and neat data. First, we don’t nee the Votes Margin column. So, we take it out. Next, we replace all the NAs with the appropriate replacement values.

# Bind all tables in the all_states_results together
combined_tibble <- bind_rows(all_states_results) |> 
  select(-`Votes Margin`) |> 
  replace_na(list(Votes="0",Percent="0%"))

print(combined_tibble)

# A tibble: 13,932 × 6
   Candidate                     Party Votes  Percent LGA           STATE     
   <chr>                         <chr> <chr>  <chr>   <chr>         <chr>     
 1 Obi Peter Gregory             LP    51,318 94.10%  Umuahia North Abia State
 2 Abubakar Atiku                PDP   1,529  2.80%   Umuahia North Abia State
 3 Tinubu Bola Ahmed             APC   795    1.46%   Umuahia North Abia State
 4 Umeadi Peter Nnanna Chukwudi  APGA  190    0.35%   Umuahia North Abia State
 5 Kachikwu Dumebi               ADC   124    0.23%   Umuahia North Abia State
 6 Ado-Ibrahim Abdulmalik        YPP   113    0.21%   Umuahia North Abia State
 7 Musa Mohammed Rabiu Kwankwaso NNPP  112    0.21%   Umuahia North Abia State
 8 Nwanyanwu Daniel Daberechukwu ZLP   91     0.17%   Umuahia North Abia State
 9 Adenuga Sunday Oluwafemi      BP    52     0.10%   Umuahia North Abia State
10 Ojei Princess Chichi          APM   48     0.09%   Umuahia North Abia State
# ℹ 13,922 more rows
…
